id,name,1st_exam,2nd_exam,avg,approved,age
36,Estrella Hornbuckle,10,8,9,True,17
47,Cornie Blesli,5,5,5,False,18
08,Cindi Omand,6,2,4,False,17
53,Lon Shakeshaft,10,10,10,True,18
15,Allys Jeffrey,8,6,7,True,18
