{
  "1": 70,
  "4": 70,
  "161": 70,
  "162": 70,
  "163": 70,
  "164": 70,
  "159": 70,
  "160": 70,
  "157": 70,
  "165": 70,
  "116": 70,
  "122": 70,
  "166": 70,
  "121": 70,
  "167": 70,
  "124": 70,
  "168": 70,
  "120": 70,
  "125": 70,
  "131": 70,
  "130": 70,
  "133": 70,
  "129": 70,
  "134": 70,
  "140": 70,
  "139": 70,
  "142": 70,
  "138": 70,
  "113": 70,
  "169": 70,
  "110": 70,
  "111": 70,
  "112": 70,
  "144": 70,
  "148": 140,
  "154": 70,
  "155": 70,
  "156": 70,
  "13": 70,
  "14": 70,
  "15": 70,
  "23": 70,
  "24": 70,
  "21": 70,
  "29": 70,
  "30": 70,
  "27": 70,
  "31": 70,
  "25": 70,
  "19": 70,
  "18": 70,
  "100": 70,
  "101": 70,
  "98": 70,
  "96": 70,
  "97": 70,
  "94": 70,
  "55": 44,
  "53": 44,
  "58": 44,
  "61": 44,
  "62": 44,
  "59": 44,
  "170": 70,
  "56": 44,
  "51": 44,
  "65": 44,
  "66": 44,
  "63": 44,
  "49": 44,
  "48": 44,
  "76": 44,
  "74": 44,
  "79": 44,
  "82": 44,
  "83": 44,
  "80": 44,
  "77": 44,
  "72": 44,
  "86": 44,
  "87": 44,
  "84": 44,
  "70": 44,
  "69": 44,
  "92": 44,
  "93": 44,
  "90": 44,
  "171": 44,
  "45": 26
}